…
[1] "F81+G"
[1] "F81+G+I"
[1] "K80+I"
[1] "K80+G"
[1] "K80+G+I"
[1] "HKY+I"
[1] "HKY+G"
[1] "HKY+G+I"
[1] "SYM+I"
[1] "SYM+G"
[1] "SYM+G+I"
[1] "GTR+I"
[1] "GTR+G"
[1] "GTR+G+I"
# A tibble: 24 × 8
   Model      df   logLik      AIC      AICw     AICc     AICcw      BIC
   <chr>   <dbl>    <dbl>    <dbl>     <dbl>    <dbl>     <dbl>    <dbl>
 1 GTR+G+I   209 -579452. 1159322. 1   e+  0 1159327. 1   e+  0 1160972.
 2 HKY+G+I   205 -580002. 1160413. 1.13e-237 1160418. 1.23e-237 1162032.
 3 GTR+G     208 -583153. 1166722. 0         1166726. 0         1168364.
 4 HKY+G     204 -583313. 1167034. 0         1167039. 0         1168645.
 5 SYM+G+I   206 -584931. 1170274. 0         1170279. 0         1171901.
 6 SYM+G     205 -588118. 1176645. 0         1176650. 0         1178263.
 7 K80+G+I   202 -591517. 1183437. 0         1183442. 0         1185032.
 8 K80+G     201 -594792. 1189986. 0         1189990. 0         1191573.
 9 F81+G+I   204 -611681. 1223769. 0         1223774. 0         1225380.
10 F81+G     203 -614505. 1229416. 0         1229420. 0         1231018.
# … with 14 more rows
…
