…
[1] "F81+G"
[1] "F81+G+I"
[1] "K80+I"
[1] "K80+G"
[1] "K80+G+I"
[1] "HKY+I"
[1] "HKY+G"
[1] "HKY+G+I"
[1] "SYM+I"
[1] "SYM+G"
[1] "SYM+G+I"
[1] "GTR+I"
[1] "GTR+G"
[1] "GTR+G+I"
# A tibble: 24 × 8
   Model      df   logLik     AIC      AICw    AICc     AICcw     BIC
   <chr>   <dbl>    <dbl>   <dbl>     <dbl>   <dbl>     <dbl>   <dbl>
 1 GTR+G+I    45 -167752. 335595. 1   e+  0 335595. 1   e+  0 335949.
 2 HKY+G+I    41 -167809. 335700. 1.34e- 23 335700. 1.36e- 23 336022.
 3 HKY+G      40 -168135. 336351. 7.09e-165 336351. 7.25e-165 336665.
 4 GTR+G      44 -168188. 336463. 2.23e-189 336464. 2.24e-189 336809.
 5 SYM+G+I    42 -169054. 338192. 0         338192. 0         338522.
 6 SYM+G      41 -169399. 338880. 0         338881. 0         339203.
 7 K80+G+I    38 -170971. 342018. 0         342018. 0         342317.
 8 K80+G      37 -171378. 342830. 0         342830. 0         343121.
 9 GTR+I      44 -171822. 343733. 0         343733. 0         344079.
10 HKY+I      40 -172328. 344737. 0         344737. 0         345051.
# … with 14 more rows
…
